<svg width="9" height="14" viewBox="0 0 9 14" fill="none" xmlns="http://www.w3.org/2000/svg">
<path d="M0.852963 1.82412C0.629416 1.63547 0.629416 1.33003 0.852963 1.14138C1.07618 0.953013 1.43873 0.952734 1.66228 1.14138L8.20343 6.65851C8.42698 6.84716 8.42698 7.15288 8.20343 7.34152L1.66244 12.8585C1.4389 13.0472 1.07668 13.0472 0.85313 12.8585C0.629583 12.6699 0.629583 12.3643 0.852629 12.1758L6.81821 6.99995L0.852963 1.82412Z" fill="#D8D8D8" stroke="#BFC2C3"/>
</svg>
