<svg width="9" height="14" viewBox="0 0 9 14" fill="none" xmlns="http://www.w3.org/2000/svg">
<path d="M8.14704 1.82412C8.37058 1.63547 8.37058 1.33003 8.14704 1.14138C7.92382 0.953013 7.56127 0.952734 7.33772 1.14138L0.796566 6.65851C0.57302 6.84716 0.57302 7.15288 0.796566 7.34152L7.33756 12.8585C7.5611 13.0472 7.92332 13.0472 8.14687 12.8585C8.37042 12.6699 8.37042 12.3643 8.14737 12.1758L2.18179 6.99995L8.14704 1.82412Z" fill="#D8D8D8" stroke="#BFC2C3"/>
</svg>
