<svg width="12" height="10" viewBox="0 0 12 10" fill="none" xmlns="http://www.w3.org/2000/svg">
<path d="M4.52211 9.59961L0 4.95598L1.44043 3.57107L4.52211 6.70502L10.6406 0.599609L12 1.92076L4.52211 9.59961Z" fill="#4A4A4A"/>
</svg>
