<svg width="165" height="29" viewBox="0 0 165 29" fill="none" xmlns="http://www.w3.org/2000/svg">
<path d="M41.3032 10.6344L40.0086 10.5411C38.7724 10.5411 37.9794 10.9299 37.6295 11.7074V19.6962H33.6992V7.07738H37.3846L37.5129 8.69847C38.1737 7.46224 39.0951 6.84413 40.2769 6.84413C40.6967 6.84413 41.0622 6.89078 41.3732 6.98408L41.3032 10.6344Z" fill="white"/>
<path d="M48.5923 19.9295C46.6563 19.9295 45.0896 19.3541 43.8923 18.2034C42.6949 17.0449 42.0962 15.5405 42.0962 13.69V13.3635C42.0962 12.0728 42.3334 10.9338 42.8076 9.94636C43.2897 8.95893 43.9894 8.19698 44.9069 7.6605C45.8244 7.11625 46.9129 6.84413 48.1724 6.84413C49.9451 6.84413 51.3446 7.39615 52.3709 8.50021C53.3972 9.59648 53.9104 11.1282 53.9104 13.0952V14.623H46.0965C46.2364 15.3306 46.5435 15.8865 47.0178 16.2908C47.4921 16.6951 48.1063 16.8972 48.8605 16.8972C50.1045 16.8972 51.0764 16.4618 51.7761 15.591L53.5722 17.7136C53.0823 18.39 52.3865 18.9304 51.4846 19.3347C50.5904 19.7312 49.6263 19.9295 48.5923 19.9295ZM48.1491 9.87638C46.9984 9.87638 46.3142 10.6383 46.0965 12.1622H50.0617V11.859C50.0773 11.2292 49.9179 10.7433 49.5836 10.4012C49.2492 10.0513 48.7711 9.87638 48.1491 9.87638Z" fill="white"/>
<path d="M60.3714 15.0196L62.3657 7.07738H66.5059L62.389 19.6962H58.3771L54.2602 7.07738H58.4121L60.3714 15.0196Z" fill="white"/>
<path d="M71.824 19.6962H67.8821V7.07738H71.824V19.6962ZM67.6488 3.82353C67.6488 3.26373 67.851 2.80501 68.2553 2.44736C68.6596 2.08971 69.1844 1.91088 69.8297 1.91088C70.475 1.91088 70.9998 2.08971 71.4041 2.44736C71.8084 2.80501 72.0106 3.26373 72.0106 3.82353C72.0106 4.38333 71.8084 4.84206 71.4041 5.19971C70.9998 5.55736 70.475 5.73619 69.8297 5.73619C69.1844 5.73619 68.6596 5.55736 68.2553 5.19971C67.851 4.84206 67.6488 4.38333 67.6488 3.82353Z" fill="white"/>
<path d="M80.361 19.9295C78.425 19.9295 76.8583 19.3541 75.661 18.2034C74.4636 17.0449 73.8649 15.5405 73.8649 13.69V13.3635C73.8649 12.0728 74.1021 10.9338 74.5764 9.94636C75.0584 8.95893 75.7582 8.19698 76.6756 7.6605C77.5931 7.11625 78.6816 6.84413 79.9411 6.84413C81.7138 6.84413 83.1133 7.39615 84.1396 8.50021C85.1659 9.59648 85.6791 11.1282 85.6791 13.0952V14.623H77.8652C78.0051 15.3306 78.3123 15.8865 78.7865 16.2908C79.2608 16.6951 79.875 16.8972 80.6292 16.8972C81.8732 16.8972 82.8451 16.4618 83.5448 15.591L85.3409 17.7136C84.851 18.39 84.1552 18.9304 83.2533 19.3347C82.3591 19.7312 81.395 19.9295 80.361 19.9295ZM79.9178 9.87638C78.7671 9.87638 78.0829 10.6383 77.8652 12.1622H81.8304V11.859C81.846 11.2292 81.6866 10.7433 81.3523 10.4012C81.018 10.0513 80.5398 9.87638 79.9178 9.87638Z" fill="white"/>
<path d="M98.1696 14.5181L99.4408 7.07738H103.208L100.234 19.6962H96.9101L94.8225 12.2089L92.7232 19.6962H89.3994L86.4255 7.07738H90.1925L91.4404 14.693L93.4463 7.07738H96.187L98.1696 14.5181Z" fill="white"/>
<path d="M111.733 19.6962C111.593 19.4397 111.469 19.0626 111.36 18.565C110.637 19.4746 109.626 19.9295 108.328 19.9295C107.138 19.9295 106.127 19.5718 105.295 18.8565C104.464 18.1334 104.048 17.2277 104.048 16.1392C104.048 14.7708 104.553 13.7367 105.564 13.0369C106.574 12.3372 108.044 11.9873 109.972 11.9873H111.185V11.3225C111.185 10.1641 110.684 9.58482 109.681 9.58482C108.748 9.58482 108.281 10.0435 108.281 10.961H104.351C104.351 9.74032 104.868 8.74901 105.902 7.98705C106.944 7.2251 108.269 6.84413 109.879 6.84413C111.488 6.84413 112.759 7.23677 113.692 8.02204C114.625 8.80732 115.104 9.88416 115.127 11.2526V16.8389C115.142 17.9974 115.321 18.8837 115.663 19.498V19.6962H111.733ZM109.272 17.1305C109.762 17.1305 110.166 17.0255 110.485 16.8156C110.812 16.6057 111.045 16.3685 111.185 16.1042V14.0866H110.042C108.674 14.0866 107.989 14.7008 107.989 15.9292C107.989 16.2869 108.11 16.5784 108.351 16.8039C108.592 17.0216 108.899 17.1305 109.272 17.1305Z" fill="white"/>
<path d="M129.029 13.4918C129.029 15.5599 128.601 17.1499 127.746 18.2617C126.891 19.3736 125.685 19.9295 124.13 19.9295C122.848 19.9295 121.813 19.4202 121.028 18.4017L120.865 19.6962H117.343V1.78259H121.273V8.09202C122.004 7.26009 122.949 6.84413 124.107 6.84413C125.678 6.84413 126.891 7.40782 127.746 8.53519C128.601 9.66257 129.029 11.2487 129.029 13.2935V13.4918ZM125.087 13.2469C125.087 12.034 124.923 11.1709 124.597 10.6578C124.278 10.1368 123.784 9.87638 123.116 9.87638C122.229 9.87638 121.615 10.2146 121.273 10.891V15.9059C121.607 16.5746 122.229 16.9089 123.139 16.9089C124.064 16.9089 124.651 16.4579 124.9 15.556C125.025 15.1129 125.087 14.3431 125.087 13.2469Z" fill="white"/>
<path d="M130.277 13.2702C130.277 12.0106 130.521 10.891 131.011 9.91137C131.501 8.92394 132.205 8.16588 133.122 7.63718C134.04 7.10848 135.117 6.84413 136.353 6.84413C138.242 6.84413 139.731 7.43114 140.819 8.60517C141.908 9.77142 142.452 11.3614 142.452 13.3751V13.5151C142.452 15.4822 141.904 17.0449 140.808 18.2034C139.719 19.3541 138.242 19.9295 136.376 19.9295C134.58 19.9295 133.138 19.393 132.049 18.32C130.961 17.2393 130.374 15.7776 130.288 13.9349L130.277 13.2702ZM134.207 13.5151C134.207 14.6813 134.39 15.5366 134.755 16.0808C135.12 16.6251 135.661 16.8972 136.376 16.8972C137.776 16.8972 138.491 15.8204 138.522 13.6667V13.2702C138.522 11.0076 137.799 9.87638 136.353 9.87638C135.039 9.87638 134.327 10.8521 134.218 12.8037L134.207 13.5151Z" fill="white"/>
<path d="M151.701 18.3317C150.869 19.3969 149.745 19.9295 148.33 19.9295C146.946 19.9295 145.897 19.5291 145.181 18.7282C144.474 17.9196 144.12 16.7612 144.12 15.2528V7.07738H148.05V15.2761C148.05 16.3569 148.575 16.8972 149.625 16.8972C150.527 16.8972 151.168 16.5746 151.549 15.9292V7.07738H155.503V19.6962H151.817L151.701 18.3317Z" fill="white"/>
<path d="M162.244 3.94016V7.07738H164.319V9.80641H162.244V15.5794C162.244 16.0536 162.329 16.3841 162.5 16.5707C162.671 16.7573 163.009 16.8506 163.515 16.8506C163.903 16.8506 164.23 16.8272 164.494 16.7806V19.5913C163.787 19.8167 163.048 19.9295 162.279 19.9295C160.926 19.9295 159.927 19.6107 159.281 18.9732C158.636 18.3356 158.313 17.3676 158.313 16.0692V9.80641H156.704V7.07738H158.313V3.94016H162.244Z" fill="white"/>
<path opacity="0.6" d="M4.58343 14.0213L1.98438 13.4741C3.14711 9.71235 6.56692 6.9765 10.4655 6.63452V9.30197C7.79805 9.50716 5.47258 11.4223 4.58343 14.0213Z" fill="white"/>
<path opacity="0.7" d="M4.51415 25.1698C1.64151 23.0495 0 19.7665 0 16.1415C0 15.5259 0.0683961 14.9787 0.136792 14.3632L4.30896 15.3207C4.24056 15.5943 4.24056 15.8679 4.24056 16.1415C4.24056 18.2617 5.19811 20.2452 6.83962 21.6132L4.51415 25.1698Z" fill="white"/>
<path opacity="0.8" d="M14.431 22.3656L17.6456 27.2901C15.7305 28.3845 13.4734 29 11.2164 29C8.95928 29 6.7706 28.3845 4.78711 27.2901L8.00173 22.3656C9.98522 23.3915 12.4475 23.3915 14.431 22.3656Z" fill="white"/>
<path opacity="0.9" d="M19.6292 27.9056L15.5254 21.6132C17.1669 20.3136 18.1244 18.3301 18.1244 16.1415C18.1244 15.8679 18.1244 15.5943 18.0561 15.3207L25.3744 13.6792C25.5112 14.5 25.5796 15.3207 25.5796 16.1415C25.648 20.8608 23.391 25.1698 19.6292 27.9056Z" fill="white"/>
<path d="M11.9004 9.23349V0C18.8768 0.273585 25.0325 5.19811 26.8108 11.9693L17.7825 14.0212C16.9617 11.4222 14.6362 9.50707 11.9004 9.23349Z" fill="white"/>
</svg>
