<svg width="19" height="13" viewBox="0 0 19 13" fill="none" xmlns="http://www.w3.org/2000/svg">
<path d="M0.25 6.25V0.25H18.75V6.25H0.25Z" fill="white" stroke="#C4C4C4" stroke-width="0.5"/>
<path d="M19 6.5H0V13H19V6.5Z" fill="#D52B1E"/>
<path d="M19 4.33398H0V8.66732H19V4.33398Z" fill="#0039A6"/>
</svg>
